0.590909090909
0.580808080808
0.590909090909
0.580808080808
0.570707070707
0.580808080808
0.60101010101
0.580808080808
0.60101010101
0.60101010101
0.60101010101
0.590909090909
0.580808080808
0.60101010101
0.580808080808
0.590909090909
0.580808080808
0.590909090909
0.60101010101
0.540404040404
0.60101010101
0.580808080808
0.590909090909
0.60101010101
0.60101010101
0.590909090909
0.590909090909
0.590909090909
0.590909090909
0.60101010101
0.590909090909
0.59009009009
0.590909090909
0.60101010101
0.60101010101
0.60101010101
0.590909090909
0.60101010101
0.570707070707
0.611111111111
0.570707070707
0.60101010101
0.590909090909
0.60101010101
0.80303030303
0.590909090909
0.590909090909
0.60101010101
0.580808080808
0.590909090909
0.799292929293
0.799292929293
0.799292929293
0.799292929293
0.799292929293
0.799292929293
0.799292929293
0.799292929293
0.799292929293
0.585454545455
0.590303030303
0.590303030303
None
0.593795093795
0.593795093795
0.606782106782
0.602693602694
0.593795093795
0.597222222222
0.60101010101
0.590909090909
0.590909090909
0.597222222222
0.597222222222
0.597222222222
0.597222222222
0.772306397306
0.586279461279
0.598164983165
0.609107744108
0.598164983165
0.608164983165
0.592222222222
0.603164983165
0.608164983165
0.608164983165
0.564393939394
0.603164983165
0.608164983165
0.608164983165
0.608164983165
0.608164983165
0.608164983165
0.608164983165
0.608164983165
0.597222222222
0.608164983165
0.608164983165
0.608164983165
0.608164983165
0.608164983165
0.608164983165
0.608164983165
0.597222222222
0.597222222222
0.608164983165
0.597222222222
0.597222222222
0.608164983165
0.608164983165
0.608164983165
0.608164983165
0.608164983165
0.597222222222
0.586279461279
0.608164983165
0.358164983165
0.608164983165
0.603164983165
0.603164983165
0.608164983165
0.477777777778
0.594250967385
0.567361111111
0.597222222222
0.608164983165
None
0.597222222222
0.597222222222
0.608164983165
0.597222222222
0.597222222222
0.597222222222
0.597222222222
0.597222222222
0.608164983165
0.608164983165
0.597222222222
0.597222222222
0.132409353175
0.12741814031
0.143314820121
0.546297901638
0.597222222222
0.608164983165
0.608164983165
0.597222222222
0.598351940457
0.606782106782
0.606782106782
0.606782106782
0.619769119769
0.619769119769
0.606782106782
0.619769119769
